module github.com/hetznercloud/cli

require (
	github.com/cheggaaa/pb/v3 v3.0.2
	github.com/dustin/go-humanize v1.0.0
	github.com/fatih/structs v1.1.0
	github.com/gosuri/uilive v0.0.3 // indirect
	github.com/gosuri/uiprogress v0.0.1 // indirect
	github.com/hetznercloud/hcloud-go v1.17.0
	github.com/mattn/go-isatty v0.0.9 // indirect
	github.com/pelletier/go-toml v1.4.0
	github.com/spf13/cobra v0.0.5
	github.com/spf13/pflag v1.0.3
	golang.org/x/crypto v0.0.0-20190909091759-094676da4a83
)

go 1.13
